##########################################
# Keep date and time in top right corner #
##########################################

    while sleep 1;do tput sc;tput cup 0 $(($(tput cols)-29));date;tput rc;done &
