##################
# emojis - Drink #
##################

+-----------------------------------------+
|                 drink                   |
+-----------------------------------------+

 1   U+2615    ☕   Hot beverage
--------------------------------------------------------
